{
  "images" : [
    {
      "idiom" : "universal",
      "scale" : "1x"
    },
    {
      "idiom" : "universal",
      "scale" : "2x",
      "filename" : "discover_V_Q@2x.png"
    },
    {
      "idiom" : "universal",
      "scale" : "3x",
      "filename" : "discover_V_Q@3x.png"
    }
  ],
  "info" : {
    "version" : 1,
    "author" : "xcode"
  }
}